<?xml version="1.0" encoding="UTF-8" standalone="no"?>
<!-- Created with Inkscape (http://www.inkscape.org/) -->

<svg
   width="321"
   height="400"
   viewBox="0 0 84.931249 105.83334"
   version="1.1"
   id="svg5"
   inkscape:version="1.1 (c68e22c387, 2021-05-23)"
   sodipodi:docname="project-a.svg"
   xmlns:inkscape="http://www.inkscape.org/namespaces/inkscape"
   xmlns:sodipodi="http://sodipodi.sourceforge.net/DTD/sodipodi-0.dtd"
   xmlns="http://www.w3.org/2000/svg"
   xmlns:svg="http://www.w3.org/2000/svg">
  <sodipodi:namedview
     id="namedview7"
     pagecolor="#505050"
     bordercolor="#ffffff"
     borderopacity="1"
     inkscape:pageshadow="0"
     inkscape:pageopacity="0"
     inkscape:pagecheckerboard="1"
     inkscape:document-units="mm"
     showgrid="false"
     units="px"
     inkscape:zoom="1.6017536"
     inkscape:cx="421.41313"
     inkscape:cy="282.19072"
     inkscape:window-width="3840"
     inkscape:window-height="2126"
     inkscape:window-x="3829"
     inkscape:window-y="-11"
     inkscape:window-maximized="1"
     inkscape:current-layer="layer1" />
  <defs
     id="defs2" />
  <g
     inkscape:label="Layer 1"
     inkscape:groupmode="layer"
     id="layer1">
    <rect
       style="fill:#d4a518;fill-opacity:1;stroke:none;stroke-width:0.77003;stroke-linecap:round"
       id="rect893"
       width="21.92487"
       height="136.30392"
       x="33.568153"
       y="-41.275162"
       transform="matrix(0.79587325,0.60546327,-0.29875783,0.95432896,0,0)" />
    <rect
       style="fill:#050052;fill-opacity:1;stroke:none;stroke-width:0.77003;stroke-linecap:round"
       id="rect893-0"
       width="21.92487"
       height="136.30392"
       x="64.549088"
       y="-60.512962"
       transform="matrix(0.79587325,0.60546327,-0.29875783,0.95432896,0,0)" />
  </g>
</svg>
